…
``` r
weather_nest_df = 
  weather_df %>% 
  nest(data = date:tmin)
```

Really is a list column!

``` r
weather_nest_df[["data"]]
```

    ## [[1]]
    ## # A tibble: 365 × 4
    ##    date        prcp  tmax  tmin
    ##    <date>     <dbl> <dbl> <dbl>
    ##  1 2017-01-01     0   8.9   4.4
    ##  2 2017-01-02    53   5     2.8
    ##  3 2017-01-03   147   6.1   3.9
    ##  4 2017-01-04     0  11.1   1.1
    ##  5 2017-01-05     0   1.1  -2.7
    ##  6 2017-01-06    13   0.6  -3.8
    ##  7 2017-01-07    81  -3.2  -6.6
    ##  8 2017-01-08     0  -3.8  -8.8
    ##  9 2017-01-09     0  -4.9  -9.9
    ## 10 2017-01-10     0   7.8  -6  
    ## # … with 355 more rows
    ## 
    ## [[2]]
    ## # A tibble: 365 × 4
    ##    date        prcp  tmax  tmin
    ##    <date>     <dbl> <dbl> <dbl>
    ##  1 2017-01-01     0  26.7  16.7
    ##  2 2017-01-02     0  27.2  16.7
    ##  3 2017-01-03     0  27.8  17.2
    ##  4 2017-01-04     0  27.2  16.7
    ##  5 2017-01-05     0  27.8  16.7
    ##  6 2017-01-06     0  27.2  16.7
    ##  7 2017-01-07     0  27.2  16.7
    ##  8 2017-01-08     0  25.6  15  
    ##  9 2017-01-09     0  27.2  15.6
    ## 10 2017-01-10     0  28.3  17.2
    ## # … with 355 more rows
    ## 
    ## [[3]]
    ## # A tibble: 365 × 4
    ##    date        prcp  tmax  tmin
    ##    <date>     <dbl> <dbl> <dbl>
    ##  1 2017-01-01   432  -6.8 -10.7
    ##  2 2017-01-02    25 -10.5 -12.4
    ##  3 2017-01-03     0  -8.9 -15.9
    ##  4 2017-01-04     0  -9.9 -15.5
    ##  5 2017-01-05     0  -5.9 -14.2
    ##  6 2017-01-06     0  -4.4 -11.3
    ##  7 2017-01-07    51   0.6 -11.5
    ##  8 2017-01-08    76   2.3  -1.2
    ##  9 2017-01-09    51  -1.2  -7  
    ## 10 2017-01-10     0  -5   -14.2
    ## # … with 355 more rows

``` r
weather_nest_df[["data"]][[1]]
```

    ## # A tibble: 365 × 4
    ##    date        prcp  tmax  tmin
    ##    <date>     <dbl> <dbl> <dbl>
    ##  1 2017-01-01     0   8.9   4.4
    ##  2 2017-01-02    53   5     2.8
    ##  3 2017-01-03   147   6.1   3.9
    ##  4 2017-01-04     0  11.1   1.1
    ##  5 2017-01-05     0   1.1  -2.7
    ##  6 2017-01-06    13   0.6  -3.8
    ##  7 2017-01-07    81  -3.2  -6.6
    ##  8 2017-01-08     0  -3.8  -8.8
    ##  9 2017-01-09     0  -4.9  -9.9
    ## 10 2017-01-10     0   7.8  -6  
    ## # … with 355 more rows
…
Un-nesting

``` r
weather_nest_df %>% 
  unnest(data)
```

    ## # A tibble: 1,095 × 7
    ##    name           id          date        prcp  tmax  tmin models
    ##    <chr>          <chr>       <date>     <dbl> <dbl> <dbl> <list>
    ##  1 CentralPark_NY USW00094728 2017-01-01     0   8.9   4.4 <lm>  
    ##  2 CentralPark_NY USW00094728 2017-01-02    53   5     2.8 <lm>  
    ##  3 CentralPark_NY USW00094728 2017-01-03   147   6.1   3.9 <lm>  
    ##  4 CentralPark_NY USW00094728 2017-01-04     0  11.1   1.1 <lm>  
    ##  5 CentralPark_NY USW00094728 2017-01-05     0   1.1  -2.7 <lm>  
    ##  6 CentralPark_NY USW00094728 2017-01-06    13   0.6  -3.8 <lm>  
    ##  7 CentralPark_NY USW00094728 2017-01-07    81  -3.2  -6.6 <lm>  
    ##  8 CentralPark_NY USW00094728 2017-01-08     0  -3.8  -8.8 <lm>  
    ##  9 CentralPark_NY USW00094728 2017-01-09     0  -4.9  -9.9 <lm>  
    ## 10 CentralPark_NY USW00094728 2017-01-10     0   7.8  -6   <lm>  
    ## # … with 1,085 more rows
…
napoleon_reviews %>% 
  select(-page) %>% 
  unnest(reviews)
```

    ## # A tibble: 50 × 4
    ##    page_url                                                    title stars text 
    ##    <chr>                                                       <chr> <dbl> <chr>
    ##  1 https://www.amazon.com/product-reviews/B00005JNBQ/ref=cm_c… Stil…     5 Comp…
    ##  2 https://www.amazon.com/product-reviews/B00005JNBQ/ref=cm_c… 70’s…     5 …esp…
    ##  3 https://www.amazon.com/product-reviews/B00005JNBQ/ref=cm_c… Amaz…     5 I ho…
    ##  4 https://www.amazon.com/product-reviews/B00005JNBQ/ref=cm_c… Watc…     3 I kn…
    ##  5 https://www.amazon.com/product-reviews/B00005JNBQ/ref=cm_c… Best…     5 We j…
    ##  6 https://www.amazon.com/product-reviews/B00005JNBQ/ref=cm_c… Quir…     5 Good…
    ##  7 https://www.amazon.com/product-reviews/B00005JNBQ/ref=cm_c… Funn…     1 Sony…
    ##  8 https://www.amazon.com/product-reviews/B00005JNBQ/ref=cm_c… A br…     5 Napo…
    ##  9 https://www.amazon.com/product-reviews/B00005JNBQ/ref=cm_c… HUHY…     5 Spicy
    ## 10 https://www.amazon.com/product-reviews/B00005JNBQ/ref=cm_c… Cult…     4 Take…
    ## # … with 40 more rows
