…
Let’s start with a `for` loop!

``` r
output = vector("list", length = 100)

for (i in 1:100) {
  
  output[[i]] = sim_mean_sd(n_obs = 30)
  
}

bind_rows(output)
```

    ## # A tibble: 100 × 2
    ##    mu_hat sigma_hat
    ##     <dbl>     <dbl>
    ##  1   7.53      3.18
    ##  2   7.44      3.84
    ##  3   7.45      3.53
    ##  4   5.68      3.69
    ##  5   7.95      4.22
    ##  6   7.27      4.34
    ##  7   6.05      4.05
    ##  8   7.10      3.72
    ##  9   7.55      4.11
    ## 10   7.87      3.79
    ## # … with 90 more rows
…
